^C:\USERS\ЛИЛИЯ\DOCUMENTS\IGUSHEVA-VORONCOV-3\3.1\X64\DEBUG\3.1.OBJ|C:\USERS\ЛИЛИЯ\DOCUMENTS\IGUSHEVA-VORONCOV-3\3.1\X64\DEBUG\ENTERMATRIX.OBJ|C:\USERS\ЛИЛИЯ\DOCUMENTS\IGUSHEVA-VORONCOV-3\3.1\X64\DEBUG\IDENTICALELEMENTSINCOLUMNS.OBJ|C:\USERS\ЛИЛИЯ\DOCUMENTS\IGUSHEVA-VORONCOV-3\3.1\X64\DEBUG\MAXELEMENTOFHALFTHEMATRIX.OBJ|C:\USERS\ЛИЛИЯ\DOCUMENTS\IGUSHEVA-VORONCOV-3\3.1\X64\DEBUG\OUTPUTMATRIX.OBJ|C:\USERS\ЛИЛИЯ\DOCUMENTS\IGUSHEVA-VORONCOV-3\3.1\X64\DEBUG\PRODUCTAFTERMINMODULO.OBJ|C:\USERS\ЛИЛИЯ\DOCUMENTS\IGUSHEVA-VORONCOV-3\3.1\X64\DEBUG\SUMOFELEMENTSOFHALFTHEMATRIX.OBJ
/OUT:"C:\USERS\ЛИЛИЯ\DOCUMENTS\IGUSHEVA-VORONCOV-3\X64\DEBUG\3.1.EXE" /INCREMENTAL /NOLOGO KERNEL32.LIB USER32.LIB GDI32.LIB WINSPOOL.LIB COMDLG32.LIB ADVAPI32.LIB SHELL32.LIB OLE32.LIB OLEAUT32.LIB UUID.LIB ODBC32.LIB ODBCCP32.LIB /MANIFEST /MANIFESTUAC:"level='asInvoker' uiAccess='false'" /manifest:embed /DEBUG:FASTLINK /PDB:"C:\USERS\ЛИЛИЯ\DOCUMENTS\IGUSHEVA-VORONCOV-3\X64\DEBUG\3.1.PDB" /SUBSYSTEM:CONSOLE /TLBID:1 /DYNAMICBASE /NXCOMPAT /IMPLIB:"C:\USERS\ЛИЛИЯ\DOCUMENTS\IGUSHEVA-VORONCOV-3\X64\DEBUG\3.1.LIB" /MACHINE:X64 X64\DEBUG\3.1.OBJ
X64\DEBUG\ENTERMATRIX.OBJ
X64\DEBUG\OUTPUTMATRIX.OBJ
X64\DEBUG\PRODUCTAFTERMINMODULO.OBJ
X64\DEBUG\IDENTICALELEMENTSINCOLUMNS.OBJ
X64\DEBUG\MAXELEMENTOFHALFTHEMATRIX.OBJ
X64\DEBUG\SUMOFELEMENTSOFHALFTHEMATRIX.OBJ
^C:\USERS\АНДРЕЙ\DESKTOP\IGUSHEVA-VORONCOV-3\3.1\X64\DEBUG\3.1.OBJ|C:\USERS\АНДРЕЙ\DESKTOP\IGUSHEVA-VORONCOV-3\3.1\X64\DEBUG\ENTERMATRIX.OBJ|C:\USERS\АНДРЕЙ\DESKTOP\IGUSHEVA-VORONCOV-3\3.1\X64\DEBUG\IDENTICALELEMENTSINCOLUMNS.OBJ|C:\USERS\АНДРЕЙ\DESKTOP\IGUSHEVA-VORONCOV-3\3.1\X64\DEBUG\MAXELEMENTOFHALFTHEMATRIX.OBJ|C:\USERS\АНДРЕЙ\DESKTOP\IGUSHEVA-VORONCOV-3\3.1\X64\DEBUG\OUTPUTMATRIX.OBJ|C:\USERS\АНДРЕЙ\DESKTOP\IGUSHEVA-VORONCOV-3\3.1\X64\DEBUG\PRODUCTAFTERMINMODULO.OBJ|C:\USERS\АНДРЕЙ\DESKTOP\IGUSHEVA-VORONCOV-3\3.1\X64\DEBUG\SUMOFELEMENTSOFHALFTHEMATRIX.OBJ
/OUT:"C:\USERS\АНДРЕЙ\DESKTOP\IGUSHEVA-VORONCOV-3\X64\DEBUG\3.1.EXE" /INCREMENTAL /NOLOGO KERNEL32.LIB USER32.LIB GDI32.LIB WINSPOOL.LIB COMDLG32.LIB ADVAPI32.LIB SHELL32.LIB OLE32.LIB OLEAUT32.LIB UUID.LIB ODBC32.LIB ODBCCP32.LIB /MANIFEST /MANIFESTUAC:"level='asInvoker' uiAccess='false'" /manifest:embed /DEBUG:FASTLINK /PDB:"C:\USERS\АНДРЕЙ\DESKTOP\IGUSHEVA-VORONCOV-3\X64\DEBUG\3.1.PDB" /SUBSYSTEM:CONSOLE /TLBID:1 /DYNAMICBASE /NXCOMPAT /IMPLIB:"C:\USERS\АНДРЕЙ\DESKTOP\IGUSHEVA-VORONCOV-3\X64\DEBUG\3.1.LIB" /MACHINE:X64 X64\DEBUG\3.1.OBJ
X64\DEBUG\ENTERMATRIX.OBJ
X64\DEBUG\OUTPUTMATRIX.OBJ
X64\DEBUG\PRODUCTAFTERMINMODULO.OBJ
X64\DEBUG\IDENTICALELEMENTSINCOLUMNS.OBJ
X64\DEBUG\MAXELEMENTOFHALFTHEMATRIX.OBJ
X64\DEBUG\SUMOFELEMENTSOFHALFTHEMATRIX.OBJ
